simulation/qsim/top_level.msim.vcd
$comment
	File created using the following command:
		vcd file top_level.msim.vcd -direction
$end
$date
	Mon Feb 23 19:05:41 2026
$end
$version
	ModelSim Version 10.1d
$end
$timescale
	1ps
$end
$scope module top_level_vlg_vec_tst $end
$var reg 4 ! Seletor [3:0] $end
$var reg 6 " X [5:0] $end
$var reg 6 # Y [5:0] $end
$var wire 1 $ HEX0 [6] $end
$var wire 1 % HEX0 [5] $end
$var wire 1 & HEX0 [4] $end
$var wire 1 ' HEX0 [3] $end
$var wire 1 ( HEX0 [2] $end
$var wire 1 ) HEX0 [1] $end
$var wire 1 * HEX0 [0] $end
$var wire 1 + HEX1 [6] $end
$var wire 1 , HEX1 [5] $end
$var wire 1 - HEX1 [4] $end
$var wire 1 . HEX1 [3] $end
$var wire 1 / HEX1 [2] $end
$var wire 1 0 HEX1 [1] $end
$var wire 1 1 HEX1 [0] $end
$var wire 1 2 HEX2 [6] $end
$var wire 1 3 HEX2 [5] $end
$var wire 1 4 HEX2 [4] $end
$var wire 1 5 HEX2 [3] $end
$var wire 1 6 HEX2 [2] $end
$var wire 1 7 HEX2 [1] $end
$var wire 1 8 HEX2 [0] $end
$var wire 1 9 HEX4 [6] $end
$var wire 1 : HEX4 [5] $end
$var wire 1 ; HEX4 [4] $end
$var wire 1 < HEX4 [3] $end
$var wire 1 = HEX4 [2] $end
$var wire 1 > HEX4 [1] $end
$var wire 1 ? HEX4 [0] $end
$var wire 1 @ HEX5 [6] $end
$var wire 1 A HEX5 [5] $end
$var wire 1 B HEX5 [4] $end
$var wire 1 C HEX5 [3] $end
$var wire 1 D HEX5 [2] $end
$var wire 1 E HEX5 [1] $end
$var wire 1 F HEX5 [0] $end
$var wire 1 G HEX6 [6] $end
$var wire 1 H HEX6 [5] $end
$var wire 1 I HEX6 [4] $end
$var wire 1 J HEX6 [3] $end
$var wire 1 K HEX6 [2] $end
$var wire 1 L HEX6 [1] $end
$var wire 1 M HEX6 [0] $end
$var wire 1 N HEX7 [6] $end
$var wire 1 O HEX7 [5] $end
$var wire 1 P HEX7 [4] $end
$var wire 1 Q HEX7 [3] $end
$var wire 1 R HEX7 [2] $end
$var wire 1 S HEX7 [1] $end
$var wire 1 T HEX7 [0] $end
$var wire 1 U HEX_DUD0 [6] $end
$var wire 1 V HEX_DUD0 [5] $end
$var wire 1 W HEX_DUD0 [4] $end
$var wire 1 X HEX_DUD0 [3] $end
$var wire 1 Y HEX_DUD0 [2] $end
$var wire 1 Z HEX_DUD0 [1] $end
$var wire 1 [ HEX_DUD0 [0] $end
$var wire 1 \ HEX_DUD1 [6] $end
$var wire 1 ] HEX_DUD1 [5] $end
$var wire 1 ^ HEX_DUD1 [4] $end
$var wire 1 _ HEX_DUD1 [3] $end
$var wire 1 ` HEX_DUD1 [2] $end
$var wire 1 a HEX_DUD1 [1] $end
$var wire 1 b HEX_DUD1 [0] $end
$var wire 1 c LEDR [6] $end
$var wire 1 d LEDR [5] $end
$var wire 1 e LEDR [4] $end
$var wire 1 f LEDR [3] $end
$var wire 1 g LEDR [2] $end
$var wire 1 h LEDR [1] $end
$var wire 1 i LEDR [0] $end
$var wire 1 j S_DBG_OUT [5] $end
$var wire 1 k S_DBG_OUT [4] $end
$var wire 1 l S_DBG_OUT [3] $end
$var wire 1 m S_DBG_OUT [2] $end
$var wire 1 n S_DBG_OUT [1] $end
$var wire 1 o S_DBG_OUT [0] $end
$var wire 1 p sampler $end
$scope module i1 $end
$var wire 1 q gnd $end
$var wire 1 r vcc $end
$var wire 1 s unknown $end
$var tri1 1 t devclrn $end
$var tri1 1 u devpor $end
$var tri1 1 v devoe $end
$var wire 1 w ula1|Mux5~4_combout $end
$var wire 1 x ula1|Mux0~5_combout $end
$var wire 1 y ula1|sub|full2|c_out~combout $end
$var wire 1 z ula1|sub|full4|Half2|carry~combout $end
$var wire 1 { ula1|Mux1~0_combout $end
$var wire 1 | ula1|Mux4~4_combout $end
$var wire 1 } ula1|Mux4~5_combout $end
$var wire 1 ~ ula1|Mux4~6_combout $end
$var wire 1 !! ula1|Mux3~0_combout $end
$var wire 1 "! ula1|Mux3~1_combout $end
$var wire 1 #! ula1|soma|full2|Half2|sum~combout $end
$var wire 1 $! ula1|Mux3~2_combout $end
$var wire 1 %! ula1|Mux3~3_combout $end
$var wire 1 &! ula1|Mux3~4_combout $end
$var wire 1 '! ula1|Mux1~3_combout $end
$var wire 1 (! ula1|Mux1~4_combout $end
$var wire 1 )! ula1|Mux1~5_combout $end
$var wire 1 *! ula1|Mux1~6_combout $end
$var wire 1 +! ula1|Mux1~7_combout $end
$var wire 1 ,! ula1|Mux1~8_combout $end
$var wire 1 -! ula1|Mux1~9_combout $end
$var wire 1 .! ula1|Mux1~10_combout $end
$var wire 1 /! ula1|Mux1~11_combout $end
$var wire 1 0! ula1|Mux2~1_combout $end
$var wire 1 1! ula1|Mux2~7_combout $end
$var wire 1 2! ula1|Mux2~8_combout $end
$var wire 1 3! ula1|Mux6~0_combout $end
$var wire 1 4! ula1|Mux6~3_combout $end
$var wire 1 5! ula1|comp|Equal0~2_combout $end
$var wire 1 6! ula1|Mux3~8_combout $end
$var wire 1 7! ula1|Mux3~9_combout $end
$var wire 1 8! ula1|Mux4~8_combout $end
$var wire 1 9! ula1|Mux4~9_combout $end
$var wire 1 :! ula1|Mux0~8_combout $end
$var wire 1 ;! ula1|Mux0~2_combout $end
$var wire 1 <! ula1|dec|b4~combout $end
$var wire 1 =! ula1|Mux0~1_combout $end
$var wire 1 >! ula1|Mux0~3_combout $end
$var wire 1 ?! ula1|Mux0~4_combout $end
$var wire 1 @! ula1|Mux0~6_combout $end
$var wire 1 A! ula1|Mux0~9_combout $end
$var wire 1 B! ula1|Mux0~7_combout $end
$var wire 1 C! ula1|Mux5~1_combout $end
$var wire 1 D! ula1|Mux5~0_combout $end
$var wire 1 E! ula1|Mux5~2_combout $end
$var wire 1 F! ula1|Mux0~0_combout $end
$var wire 1 G! ula1|Mux5~3_combout $end
$var wire 1 H! ula1|Mux5~5_combout $end
$var wire 1 I! ula1|Mux5~6_combout $end
$var wire 1 J! ula1|Mux2~0_combout $end
$var wire 1 K! ula1|Mux1~1_combout $end
$var wire 1 L! ula1|Mux4~3_combout $end
$var wire 1 M! ula1|Mux4~0_combout $end
$var wire 1 N! ula1|Mux4~1_combout $end
$var wire 1 O! ula1|Mux4~2_combout $end
$var wire 1 P! ula1|Mux4~7_combout $end
$var wire 1 Q! ula1|Mux1~2_combout $end
$var wire 1 R! ula1|Mux3~5_combout $end
$var wire 1 S! ula1|Mux3~6_combout $end
$var wire 1 T! ula1|Mux3~7_combout $end
$var wire 1 U! ula1|Mux2~2_combout $end
$var wire 1 V! ula1|soma|full1|c_out~0_combout $end
$var wire 1 W! ula1|sub|full3|Half1|sum~0_combout $end
$var wire 1 X! ula1|soma|full3|Half2|sum~combout $end
$var wire 1 Y! ula1|sub|full1|c_out~combout $end
$var wire 1 Z! ula1|sub|full3|Half2|sum~combout $end
$var wire 1 [! ula1|Mux2~3_combout $end
$var wire 1 \! ula1|Mux2~4_combout $end
$var wire 1 ]! ula1|Mux2~5_combout $end
$var wire 1 ^! ula1|Mux2~6_combout $end
$var wire 1 _! ula1|Mux2~9_combout $end
$var wire 1 `! dec_saida|Mux6~1_combout $end
$var wire 1 a! dec_saida|Mux6~0_combout $end
$var wire 1 b! dec_saida|Mux6~2_combout $end
$var wire 1 c! ula1|Mux1~12_combout $end
$var wire 1 d! ula1|Mux1~13_combout $end
$var wire 1 e! dec_saida|Mux5~4_combout $end
$var wire 1 f! dec_saida|Mux5~2_combout $end
$var wire 1 g! dec_saida|Mux5~3_combout $end
$var wire 1 h! dec_saida|Mux4~1_combout $end
$var wire 1 i! dec_saida|Mux4~0_combout $end
$var wire 1 j! dec_saida|Mux4~2_combout $end
$var wire 1 k! dec_saida|Mux3~4_combout $end
$var wire 1 l! dec_saida|Mux3~0_combout $end
$var wire 1 m! dec_saida|Mux3~1_combout $end
$var wire 1 n! dec_saida|Mux3~3_combout $end
$var wire 1 o! dec_saida|Mux3~5_combout $end
$var wire 1 p! dec_saida|Mux3~2_combout $end
$var wire 1 q! dec_saida|Mux2~0_combout $end
$var wire 1 r! dec_saida|Mux1~2_combout $end
$var wire 1 s! dec_saida|Mux1~1_combout $end
$var wire 1 t! dec_saida|Mux1~0_combout $end
$var wire 1 u! dec_saida|Mux1~3_combout $end
$var wire 1 v! dec_saida|Mux0~4_combout $end
$var wire 1 w! dec_saida|Mux0~3_combout $end
$var wire 1 x! dec_saida|Mux0~1_combout $end
$var wire 1 y! dec_saida|Mux0~0_combout $end
$var wire 1 z! dec_saida|Mux0~2_combout $end
$var wire 1 {! dec_saida|Mux0~5_combout $end
$var wire 1 |! dec_saida|Mux12~1_combout $end
$var wire 1 }! dec_saida|Mux12~0_combout $end
$var wire 1 ~! dec_saida|Mux12~2_combout $end
$var wire 1 !" dec_saida|Mux11~1_combout $end
$var wire 1 "" dec_saida|Mux11~2_combout $end
$var wire 1 #" dec_saida|Mux11~0_combout $end
$var wire 1 $" dec_saida|Mux11~3_combout $end
$var wire 1 %" dec_saida|Mux9~1_combout $end
$var wire 1 &" dec_saida|Mux9~0_combout $end
$var wire 1 '" dec_saida|Mux9~2_combout $end
$var wire 1 (" dec_saida|Mux8~0_combout $end
$var wire 1 )" dec_saida|Mux8~1_combout $end
$var wire 1 *" dec_saida|Mux7~0_combout $end
$var wire 1 +" ula1|Equal0~0_combout $end
$var wire 1 ," dec_saida|Mux7~1_combout $end
$var wire 1 -" dec_A|Mux6~0_combout $end
$var wire 1 ." dec_A|Mux6~1_combout $end
$var wire 1 /" dec_A|Mux6~2_combout $end
$var wire 1 0" dec_A|Mux5~0_combout $end
$var wire 1 1" dec_A|Mux5~1_combout $end
$var wire 1 2" dec_A|Mux5~2_combout $end
$var wire 1 3" dec_A|Mux4~1_combout $end
$var wire 1 4" dec_A|Mux4~0_combout $end
$var wire 1 5" dec_A|Mux4~2_combout $end
$var wire 1 6" dec_A|Mux3~0_combout $end
$var wire 1 7" dec_A|Mux3~4_combout $end
$var wire 1 8" dec_A|Mux3~2_combout $end
$var wire 1 9" dec_A|Mux3~3_combout $end
$var wire 1 :" dec_A|Mux3~5_combout $end
$var wire 1 ;" dec_A|Mux3~1_combout $end
$var wire 1 <" dec_A|Mux2~0_combout $end
$var wire 1 =" dec_A|Mux1~1_combout $end
$var wire 1 >" dec_A|Mux1~0_combout $end
$var wire 1 ?" dec_A|Mux1~2_combout $end
$var wire 1 @" dec_A|Mux1~3_combout $end
$var wire 1 A" dec_A|Mux0~1_combout $end
$var wire 1 B" dec_A|Mux0~0_combout $end
$var wire 1 C" dec_A|Mux0~2_combout $end
$var wire 1 D" dec_A|Mux12~0_combout $end
$var wire 1 E" dec_A|Mux12~1_combout $end
$var wire 1 F" dec_A|Mux12~2_combout $end
$var wire 1 G" dec_A|Mux11~1_combout $end
$var wire 1 H" dec_A|Mux11~0_combout $end
$var wire 1 I" dec_A|Mux11~2_combout $end
$var wire 1 J" dec_A|Mux9~1_combout $end
$var wire 1 K" dec_A|Mux9~0_combout $end
$var wire 1 L" dec_A|Mux9~2_combout $end
$var wire 1 M" dec_A|Mux8~0_combout $end
$var wire 1 N" dec_A|Mux8~1_combout $end
$var wire 1 O" dec_A|Mux7~0_combout $end
$var wire 1 P" dec_A|Mux7~1_combout $end
$var wire 1 Q" dec_B|Mux6~1_combout $end
$var wire 1 R" dec_B|Mux6~0_combout $end
$var wire 1 S" dec_B|Mux6~2_combout $end
$var wire 1 T" dec_B|Mux5~0_combout $end
$var wire 1 U" dec_B|Mux5~1_combout $end
$var wire 1 V" dec_B|Mux5~2_combout $end
$var wire 1 W" dec_B|Mux4~1_combout $end
$var wire 1 X" dec_B|Mux4~0_combout $end
$var wire 1 Y" dec_B|Mux4~2_combout $end
$var wire 1 Z" dec_B|Mux3~0_combout $end
$var wire 1 [" dec_B|Mux3~2_combout $end
$var wire 1 \" dec_B|Mux3~3_combout $end
$var wire 1 ]" dec_B|Mux3~4_combout $end
$var wire 1 ^" dec_B|Mux3~5_combout $end
$var wire 1 _" dec_B|Mux3~1_combout $end
$var wire 1 `" dec_B|Mux2~0_combout $end
$var wire 1 a" dec_B|Mux1~0_combout $end
$var wire 1 b" dec_B|Mux1~2_combout $end
$var wire 1 c" dec_B|Mux1~1_combout $end
$var wire 1 d" dec_B|Mux1~3_combout $end
$var wire 1 e" dec_B|Mux0~0_combout $end
$var wire 1 f" dec_B|Mux0~1_combout $end
$var wire 1 g" dec_B|Mux0~2_combout $end
$var wire 1 h" dec_B|Mux12~1_combout $end
$var wire 1 i" dec_B|Mux12~0_combout $end
$var wire 1 j" dec_B|Mux12~2_combout $end
$var wire 1 k" dec_B|Mux11~1_combout $end
$var wire 1 l" dec_B|Mux11~0_combout $end
$var wire 1 m" dec_B|Mux11~2_combout $end
$var wire 1 n" dec_B|Mux9~0_combout $end
$var wire 1 o" dec_B|Mux9~1_combout $end
$var wire 1 p" dec_B|Mux9~2_combout $end
$var wire 1 q" dec_B|Mux8~0_combout $end
$var wire 1 r" dec_B|Mux8~1_combout $end
$var wire 1 s" dec_B|Mux7~0_combout $end
$var wire 1 t" dec_B|Mux7~1_combout $end
$var wire 1 u" ula1|inc|c2~0_combout $end
$var wire 1 v" ula1|inc|overflow~0_combout $end
$var wire 1 w" ula1|sub|full4|c_out~combout $end
$var wire 1 x" ula1|soma|full2|c_out~0_combout $end
$var wire 1 y" ula1|soma|full3|c_out~0_combout $end
$var wire 1 z" ula1|soma|full4|c_out~0_combout $end
$var wire 1 {" ula1|Mux6~1_combout $end
$var wire 1 |" ula1|Mux6~2_combout $end
$var wire 1 }" ula1|Mux6~4_combout $end
$var wire 1 ~" ula1|Mux6~5_combout $end
$var wire 1 !# ula1|Equal0~1_combout $end
$var wire 1 "# ula1|sub|full4|Half1|sum~0_combout $end
$var wire 1 ## ula1|sub|full4|Half2|sum~combout $end
$var wire 1 $# ula1|sub|full2|Half2|sum~combout $end
$var wire 1 %# ula1|comp|Equal0~3_combout $end
$var wire 1 &# ula1|comp|Equal0~4_combout $end
$var wire 1 '# ula1|sub|full5|c_out~combout $end
$var wire 1 (# Seletor~combout [3] $end
$var wire 1 )# Seletor~combout [2] $end
$var wire 1 *# Seletor~combout [1] $end
$var wire 1 +# Seletor~combout [0] $end
$var wire 1 ,# ula1|dec|S [5] $end
$var wire 1 -# ula1|dec|S [4] $end
$var wire 1 .# ula1|dec|S [3] $end
$var wire 1 /# ula1|dec|S [2] $end
$var wire 1 0# ula1|dec|S [1] $end
$var wire 1 1# ula1|dec|S [0] $end
$var wire 1 2# ula1|inc|S [5] $end
$var wire 1 3# ula1|inc|S [4] $end
$var wire 1 4# ula1|inc|S [3] $end
$var wire 1 5# ula1|inc|S [2] $end
$var wire 1 6# ula1|inc|S [1] $end
$var wire 1 7# ula1|inc|S [0] $end
$var wire 1 8# Y~combout [5] $end
$var wire 1 9# Y~combout [4] $end
$var wire 1 :# Y~combout [3] $end
$var wire 1 ;# Y~combout [2] $end
$var wire 1 <# Y~combout [1] $end
$var wire 1 =# Y~combout [0] $end
$var wire 1 ># X~combout [5] $end
$var wire 1 ?# X~combout [4] $end
$var wire 1 @# X~combout [3] $end
$var wire 1 A# X~combout [2] $end
$var wire 1 B# X~combout [1] $end
$var wire 1 C# X~combout [0] $end
$upscope $end
$upscope $end
$enddefinitions $end
#0
$dumpvars
b0 !
b0 "
b1010 #
1*
0)
0(
0'
0&
0%
0$
11
00
0/
1.
1-
1,
1+
18
17
16
15
14
13
12
1?
0>
0=
0<
0;
0:
09
0F
0E
0D
0C
0B
0A
1@
1M
0L
0K
0J
0I
0H
0G
1T
0S
0R
1Q
1P
1O
1N
1[
1Z
1Y
1X
1W
1V
1U
1b
1a
1`
1_
1^
1]
1\
0i
0h
0g
0f
1e
0d
0c
0o
1n
0m
1l
0k
0j
xp
0q
1r
xs
1t
1u
1v
0w
0x
0y
0z
0{
0|
0}
1~
0!!
0"!
0#!
0$!
0%!
0&!
0'!
0(!
0)!
0*!
0+!
0,!
0-!
0.!
1/!
00!
11!
12!
03!
04!
05!
06!
07!
08!
19!
0:!
0;!
0<!
1=!
0>!
0?!
0@!
0A!
0B!
0C!
1D!
0E!
1F!
0G!
0H!
0I!
1J!
0K!
0L!
1M!
1N!
0O!
1P!
0Q!
1R!
1S!
0T!
0U!
0V!
1W!
1X!
0Y!
1Z!
1[!
1\!
1]!
1^!
1_!
0`!
0a!
1b!
1c!
0d!
0e!
0f!
0g!
0h!
0i!
0j!
1k!
1l!
0m!
0n!
0o!
0p!
0q!
0r!
0s!
0t!
0u!
0v!
0w!
0x!
0y!
0z!
0{!
0|!
1}!
1~!
0!"
0""
1#"
0$"
0%"
0&"
1'"
1("
1)"
0*"
0+"
1,"
0-"
0."
1/"
00"
01"
02"
03"
04"
05"
06"
07"
08"
09"
0:"
0;"
0<"
0="
0>"
0?"
0@"
0A"
0B"
0C"
0D"
0E"
0F"
0G"
0H"
0I"
0J"
0K"
0L"
0M"
0N"
0O"
1P"
0Q"
0R"
1S"
0T"
0U"
0V"
0W"
0X"
0Y"
1Z"
0["
0\"
1]"
0^"
0_"
0`"
0a"
0b"
0c"
0d"
0e"
0f"
0g"
0h"
1i"
1j"
0k"
0l"
0m"
0n"
0o"
1p"
1q"
1r"
0s"
1t"
0u"
0v"
0w"
0x"
0y"
0z"
0{"
0|"
0}"
0~"
0!#
0"#
0##
0$#
0%#
0&#
0'#
0+#
0*#
0)#
0(#
z1#
z0#
z/#
0.#
z-#
z,#
z7#
z6#
z5#
04#
03#
z2#
0=#
1<#
0;#
1:#
09#
08#
0C#
0B#
0A#
0@#
0?#
0>#
$end
#10000
b1 "
b1011 #
1=#
1C#
0p
1f"
1e"
1d"
1`"
1\"
1T"
1V!
1G!
0D!
18!
1B"
1A"
1@"
1<"
1:"
10"
1<!
1.#
1g"
1^"
1U"
1#!
1H!
09!
1C"
11"
1H
1I
1:
1;
1<
1$!
0~
1G
1J
19
1%!
0P!
1&!
0("
0'"
0}!
1x!
1v!
1t!
0l!
0k!
1a!
1`!
0n
17!
0)"
0~!
0b!
0-
1T!
0,
0.
01
0*
1("
1%"
1}!
1|!
1y!
0t!
1p!
1l!
1h!
0`!
1m
1)"
1'"
1~!
1s!
1j!
1u!
1,
1-
1.
11
1(
1%
#20000
b11 "
b1111 #
b1101 #
b10 "
b1100 #
0=#
0<#
1;#
0C#
1B#
1p
1o"
1h"
0f"
0e"
0d"
0`"
0\"
0T"
1Y!
0V!
0G!
1D!
08!
0p"
0g"
0]"
1["
1W"
0U"
1R"
0M!
1|
1$#
1x"
1V"
0X!
0#!
1M"
1D"
0B"
0A"
0@"
0<"
0:"
00"
0C"
17"
16"
13"
01"
1-"
1p"
0^"
0$#
0x"
1X!
1#!
0H!
19!
1c"
1Y"
0V"
0S"
0N!
1}
0$!
1y"
1+!
0[!
11"
1="
15"
0/"
0H
0I
0P
0G
1L
0:
0;
0<
09
1$!
0y"
0+!
1[!
1~
1d"
0%!
1-!
0\!
1@"
1P
0J
1K
0L
0M
1=
0?
1%!
0-!
1\!
1P!
0&!
1.!
0]!
1H
1:
1&!
0.!
1]!
1*"
0#"
0y!
0v!
1t!
1r!
0p!
1m!
0l!
0h!
0a!
1`!
07!
1d!
0^!
1n
17!
0d!
1^!
0,"
1q!
1n!
0s!
0j!
1b!
0T!
0%"
0~!
0x!
0m!
1l!
1k!
0`!
0_!
1k
1T!
1,"
0)"
1y!
1x!
1v!
1f!
1a!
1_!
1o!
0u!
1+"
0*"
0|!
0t!
0r!
1h!
0'"
0q!
0n!
0k
0+
1&
0(
1*
0m
0.
01
0l
0+"
1*"
1%"
1|!
0y!
0v!
1t!
1r!
1m!
0l!
0k!
0h!
1g!
0a!
1`!
0b!
1)"
1'"
1~!
0f!
1s!
1j!
0o!
1m
1+
0,
1l
1'
0%
0-
0&
1u!
1q!
1n!
0s!
0j!
1b!
0g!
1)
0*
1,
1-
1.
11
1(
0'
1o!
0u!
1%
1&
0(
1*
0)
1'
0%
#30000
b11 "
b1101 #
1=#
1C#
0p
1s"
1e"
0d"
0c"
1`"
1\"
0Y"
1T"
1V!
1G!
0D!
18!
1u"
1B"
1A"
0@"
0="
1<"
05"
10"
1d"
1x"
0X!
0#!
1H!
09!
1@"
01"
0H
1I
0K
0:
1;
0=
1y"
1+!
0[!
0$!
0~
1H
1:
1-!
0\!
0%!
0P!
1.!
0]!
0&!
0*"
1#"
1y!
1v!
0t!
0r!
1p!
0m!
1l!
1h!
1a!
0`!
0n
1d!
0^!
07!
16!
0q!
0n!
1s!
1j!
0b!
0,"
0%"
1$"
0~!
0y!
0s!
0p!
0l!
0j!
1f!
1`!
0_!
0T!
0o!
1u!
1k
0&
1(
0*
0'"
0u!
1+"
0#"
0x!
0h!
0f!
0`!
0("
1&"
0}!
0|!
1m!
0+
1/
0.
01
0(
0l
0m
0'
1%
1,"
0$"
1g!
1'"
1~!
0-
0%
1+
0/
1)
1-
1.
11
#40000
b111 "
b101 "
b1111 #
b100 "
b1110 #
0=#
1<#
0C#
0B#
1A#
1p
0e"
0d"
1c"
0`"
1^"
0\"
1Y"
0T"
0Y!
0V!
0G!
1D!
08!
1b"
1a"
1_"
0["
0Z"
0W"
1U"
0R"
1Q"
1M!
0|
0u"
1J"
1E"
0B"
0A"
0@"
1="
0<"
15"
00"
1C"
1?"
1>"
18"
07"
03"
11"
1."
0-"
1$#
0Z!
0R!
1#!
1!!
1y
1d"
0^"
0U"
0$#
1Z!
0y
0#!
0H!
19!
1`"
1\"
0c"
0Y"
1V"
1S"
1N!
0}
0C"
1@"
01"
1<"
19"
0="
05"
12"
1/"
1$!
0S!
1"!
0H
0I
1J
1K
0:
0;
1=
19
0V"
0$!
1~
1^"
0d"
02"
1:"
0@"
1%!
1H
0J
1I
0K
1L
1M
09
1:
1;
0=
1>
1?
0%!
1P!
1&!
0L
1J
0H
0>
1<
0:
0&!
1("
1}!
1x!
0m!
1l!
1k!
1h!
1f!
1`!
17!
06!
1n
07!
16!
0g!
1T!
0T!
0+"
0&"
1#"
1|!
1y!
1t!
1r!
1i!
0h!
0`!
0)
1m
1+"
1&"
0#"
0|!
0y!
0t!
0r!
0i!
1h!
1`!
0,"
0'"
1$"
0~!
1s!
1j!
0m
1,"
1'"
0$"
1~!
1u!
0s!
0j!
0+
0-
1/
0.
01
1(
0u!
1+
1-
0/
1.
11
1%
0(
0%
#50000
b101 "
b1111 #
1=#
1C#
0p
1e"
0^"
1T"
0S"
1V!
1G!
0D!
18!
1O"
1B"
0:"
09"
10"
0/"
1U"
1#!
1H!
09!
11"
0J
0M
0<
0?
1V"
1$!
0~
12"
1%!
0P!
1L
1>
1&!
0("
0}!
0x!
1m!
0l!
0k!
0h!
0f!
0`!
0n
17!
1g!
1T!
1)
0+"
1("
0&"
1#"
1}!
1|!
0v!
1t!
1r!
0m!
0g!
0a!
1m
0,"
0'"
1$"
0~!
1b!
0)
0+
0-
1/
0.
01
1*
#60000
b11111 #
b10111 #
b10011 #
b111 "
b10001 #
b110 "
b10000 #
0C#
1B#
0=#
0<#
0;#
0:#
19#
1p
0B"
19"
00"
1/"
1Y!
0V!
0G!
1D!
08!
1C"
1;"
08"
06"
14"
01"
0."
1-"
0M!
1|
0s"
0q"
0o"
1l"
0i"
0h"
0e"
0`"
1^"
0\"
0T"
1S"
0p"
0b"
0a"
1R"
0Q"
1$#
1n"
0V"
0Z!
0#!
1y
0y"
0t"
0j"
0W!
0+!
1"#
1z"
0C"
1:"
11"
0$#
1Z!
0x"
1#!
0H!
19!
0<"
09"
02"
0/"
0N!
1}
1t"
1p"
1j"
0^"
0U"
0S"
0$!
0z"
0-!
1+!
1{"
1:!
1?
19
0I
1J
1M
0P
0L
0N
0Q
0T
12"
1$!
1~
0:"
1V"
0%!
0{"
0:!
0.!
1-!
1|"
14!
1A!
09
1<
0;
0>
0?
1N
1P
1Q
1T
0J
0M
1%!
1P!
0&!
0|"
04!
0A!
0d!
1.!
1}"
1B!
1>
0<
1L
1&!
0("
0|!
1v!
0r!
1l!
1k!
1f!
1a!
07!
0}"
0B!
1d!
1~"
0b!
1n
0k
1j
1h
02
17!
1~!
0T!
0~"
1("
1|!
1r!
1i!
1y!
1x!
0j
0h
1k
1i
0*
12
1T!
1+"
1&"
0#"
0|!
0y!
0t!
0r!
0i!
1h!
1`!
0~!
1s!
1j!
1.
11
0m
0i
0+"
0&"
1#"
1|!
1y!
1t!
1r!
1i!
0h!
0`!
1,"
1'"
0$"
1~!
1u!
0s!
0j!
1m
0.
01
1(
0,"
0'"
1$"
0~!
0u!
1s!
1j!
1+
1-
0/
1.
11
1%
0(
1u!
0+
0-
1/
0.
01
0%
1(
1%
#70000
b111 "
b10001 #
1=#
1C#
0p
1f"
1e"
1d"
1c"
1`"
1^"
1T"
1V!
1G!
0D!
18!
1u"
1B"
1<"
1:"
10"
14#
1g"
0d"
1U"
1x"
1X!
0#!
1H!
09!
1C"
01"
1H
1I
1J
1;
1<
0V"
1[!
0$!
0~
02"
1G
0H
19
1\!
0%!
0P!
0L
0>
1]!
0&!
0y!
0x!
0v!
0l!
0k!
0i!
0f!
0a!
0n
1^!
07!
06!
0s!
0j!
1b!
1_!
0T!
0u!
0(
1*
1x!
0r!
1f!
1`!
0("
1&"
0}!
0|!
1m!
1g!
1l
0m
0%
0g!
1q!
1n!
1)
1o!
0)
1&
1'
#80000
b1111 "
b1011 "
b1001 "
b10011 #
b1000 "
b10010 #
0=#
1<#
0C#
0B#
0A#
1@#
1p
1q"
0l"
1k"
1i"
0f"
0e"
1d"
0c"
0`"
0^"
0T"
0Y!
0V!
0G!
1D!
08!
0g"
0_"
1]"
1Z"
1W"
1Q"
1M!
0|
0u"
0O"
0M"
0J"
0E"
0D"
0B"
0:"
19"
00"
1L"
0C"
0?"
0;"
04"
1."
1$#
0x"
0X!
1R!
1#!
0!!
1y"
1N"
1F"
1W!
01!
10!
0+!
0d"
0$#
0y
1X!
0#!
0H!
19!
1N!
0}
0N"
0L"
0F"
1:"
0<"
09"
1$!
0y"
1+!
0[!
1S!
0"!
1z"
02!
1U!
0-!
1H
0I
0J
0G
0<
1B
09
1A
1C
1F
0$!
1[!
1~
0:"
1%!
0z"
1-!
0\!
1{"
1:!
0.!
0H
0A
0B
0C
0F
1<
0;
0%!
1\!
1P!
1&!
0{"
0:!
1.!
0]!
1|"
14!
1A!
0d!
0<
0&!
1]!
1("
1}!
0x!
0t!
0m!
1l!
1k!
0f!
0`!
17!
16!
0|"
04!
0A!
1d!
0^!
1}"
1B!
1,"
0)"
0&"
0$"
1n
0k
07!
06!
1^!
0q!
0n!
1g!
0b!
1T!
0}"
0B!
1&"
1v!
1p!
0k!
1a!
0_!
1~"
0("
0}!
1h!
1'"
1k
1j
1h
1+
0,
0/
02
0T!
1_!
0o!
1("
0&"
1}!
1|!
1y!
1x!
1t!
1r!
0p!
1k!
1i!
0h!
0g!
0~"
0,"
1)"
1$"
1q!
1n!
1~!
1f!
0&
1)
0*
1m
0j
0h
0l
1i
1-
12
1&"
0|!
0y!
0x!
0t!
0r!
0i!
0~!
0q!
0n!
0f!
1o!
1s!
1j!
0m
1l
0'
0)
0i
0+
1,
1/
1&
1.
11
0'"
1u!
0s!
0j!
0o!
1g!
0.
01
0&
1'
1(
0u!
0-
1%
0(
0'
1)
0%
#90000
b1001 "
b10011 #
1=#
1C#
0p
1f"
1e"
1d"
1c"
1`"
1T"
1V!
1G!
0D!
18!
1B"
1A"
1<"
1:"
19"
10"
0.#
0d"
1#!
1H!
09!
0:"
1H
1I
1;
1<
1$!
0~
0H
0<
1%!
0P!
1&!
0("
0}!
1x!
0v!
1t!
1m!
0l!
0k!
1f!
0a!
1`!
0n
17!
1q!
1n!
0g!
1b!
1T!
1o!
1&
0)
1*
1("
0&"
1}!
1|!
1v!
0t!
0m!
1h!
1a!
1m
1'
0q!
0n!
0b!
0o!
0&
0*
0'
